{
	"users":[
		{"date":"2020-05-20","email":"j.doe@example.com","status":"0"},
		{"date":"2020-04-20","email":"j.somebody@example.com","status":"1"},
		{"date":"2020-03-20","email":"j.smith@example.com","status":"0"}
	]
}

